…
~~~
gapminder
~~~
{: .language-r}



~~~
# A tibble: 1,704 x 6
   country      year       pop continent lifeExp gdpPercap
   <chr>       <int>     <dbl> <chr>       <dbl>     <dbl>
 1 Afghanistan  1952  8425333. Asia         28.8      779.
 2 Afghanistan  1957  9240934. Asia         30.3      821.
 3 Afghanistan  1962 10267083. Asia         32.0      853.
 4 Afghanistan  1967 11537966. Asia         34.0      836.
 5 Afghanistan  1972 13079460. Asia         36.1      740.
 6 Afghanistan  1977 14880372. Asia         38.4      786.
 7 Afghanistan  1982 12881816. Asia         39.9      978.
 8 Afghanistan  1987 13867957. Asia         40.8      852.
 9 Afghanistan  1992 16317921. Asia         41.7      649.
10 Afghanistan  1997 22227415. Asia         41.8      635.
# ... with 1,694 more rows
…
### More powerful selections

We can do more than just select by typing names. You can use column indices:


~~~
gapminder %>% 
  select(1:3)
~~~
{: .language-r}



~~~
# A tibble: 1,704 x 3
   country      year       pop
   <chr>       <int>     <dbl>
 1 Afghanistan  1952  8425333.
 2 Afghanistan  1957  9240934.
 3 Afghanistan  1962 10267083.
 4 Afghanistan  1967 11537966.
 5 Afghanistan  1972 13079460.
 6 Afghanistan  1977 14880372.
 7 Afghanistan  1982 12881816.
 8 Afghanistan  1987 13867957.
 9 Afghanistan  1992 16317921.
10 Afghanistan  1997 22227415.
# ... with 1,694 more rows
…
>
> Select all columns from `gapminder` that start with "co"
>
> > ## Solution to Challenge 1
> >
> >~~~
> >gapminder %>%
> >  select(starts_with("co"))
> >~~~
> >{: .language-r}
> >
> >
> >
> >~~~
> ># A tibble: 1,704 x 2
> >   country     continent
> >   <chr>       <chr>    
> > 1 Afghanistan Asia     
> > 2 Afghanistan Asia     
> > 3 Afghanistan Asia     
> > 4 Afghanistan Asia     
> > 5 Afghanistan Asia     
> > 6 Afghanistan Asia     
> > 7 Afghanistan Asia     
> > 8 Afghanistan Asia     
> > 9 Afghanistan Asia     
> >10 Afghanistan Asia     
> ># ... with 1,694 more rows
…
>
> Select all columns from `gapminder` that contain the letter "p"
>
> > ## Solution to Challenge 2
> >
> >~~~
> >gapminder %>%
> >  select(contains("p"))
> >~~~
> >{: .language-r}
> >
> >
> >
> >~~~
> ># A tibble: 1,704 x 3
> >         pop lifeExp gdpPercap
> >       <dbl>   <dbl>     <dbl>
> > 1  8425333.    28.8      779.
> > 2  9240934.    30.3      821.
> > 3 10267083.    32.0      853.
> > 4 11537966.    34.0      836.
> > 5 13079460.    36.1      740.
> > 6 14880372.    38.4      786.
> > 7 12881816.    39.9      978.
> > 8 13867957.    40.8      852.
> > 9 16317921.    41.7      649.
> >10 22227415.    41.8      635.
> ># ... with 1,694 more rows
…
> ## Challenge 5
>
> Find the record with the lowest population
> > ## Solution to Challenge 5
> >
> >~~~
> >gapminder %>% 
> >   arrange(pop)
> >~~~
> >{: .language-r}
> >
> >
> >
> >~~~
> ># A tibble: 1,704 x 6
> >   country                year    pop continent lifeExp gdpPercap
> >   <chr>                 <int>  <dbl> <chr>       <dbl>     <dbl>
> > 1 Sao Tome and Principe  1952 60011. Africa       46.5      880.
> > 2 Sao Tome and Principe  1957 61325. Africa       48.9      861.
> > 3 Djibouti               1952 63149. Africa       34.8     2670.
> > 4 Sao Tome and Principe  1962 65345. Africa       51.9     1072.
> > 5 Sao Tome and Principe  1967 70787. Africa       54.4     1385.
> > 6 Djibouti               1957 71851. Africa       37.3     2865.
> > 7 Sao Tome and Principe  1972 76595. Africa       56.5     1533.
> > 8 Sao Tome and Principe  1977 86796. Africa       58.6     1738.
> > 9 Djibouti               1962 89898. Africa       39.7     3021.
> >10 Sao Tome and Principe  1982 98593. Africa       60.4     1890.
> ># ... with 1,694 more rows
…
> Find the country with the lowest population after 1982 that also had a 
> life expectancy greater than 70
> > ## Solution to Challenge 6
> >
> >~~~
> >gapminder %>% 
> >   filter(year == 1982, lifeExp > 70) %>% 
> >   arrange(pop)
> >~~~
> >{: .language-r}
> >
> >
> >
> >~~~
> ># A tibble: 44 x 6
> >   country     year      pop continent lifeExp gdpPercap
> >   <chr>      <int>    <dbl> <chr>       <dbl>     <dbl>
> > 1 Iceland     1982  233997. Europe       77.0    23270.
> > 2 Montenegro  1982  562548. Europe       74.1    11223.
> > 3 Kuwait      1982 1497494. Asia         71.3    31354.
> > 4 Slovenia    1982 1861252. Europe       71.1    17867.
> > 5 Panama      1982 2036305. Americas     70.5     7010.
> > 6 Jamaica     1982 2298309. Americas     71.2     6068.
> > 7 Costa Rica  1982 2424367. Americas     73.4     5263.
> > 8 Singapore   1982 2651869. Asia         71.8    15169.
> > 9 Albania     1982 2780097. Europe       70.4     3631.
> >10 Uruguay     1982 2953997. Americas     70.8     6920.
> ># ... with 34 more rows
…
> > ## Solution to Challenge 7
> >
> >~~~
> >lifeExp_bycountry <- gapminder %>%
> >    group_by(country) %>%
> >    summarise(mean_lifeExp=mean(lifeExp))
> >lifeExp_bycountry %>%
> >    arrange(mean_lifeExp)
> >~~~
> >{: .language-r}
> >
> >
> >
> >~~~
> ># A tibble: 142 x 2
> >   country           mean_lifeExp
> >   <chr>                    <dbl>
> > 1 Sierra Leone              36.8
> > 2 Afghanistan               37.5
> > 3 Angola                    37.9
> > 4 Guinea-Bissau             39.2
> > 5 Mozambique                40.4
> > 6 Somalia                   41.0
> > 7 Rwanda                    41.5
> > 8 Liberia                   42.5
> > 9 Equatorial Guinea         43.0
> >10 Guinea                    43.2
> ># ... with 132 more rows
> >~~~
> >{: .output}
> >
> >
> >
> >~~~
> >lifeExp_bycountry %>%
> >    arrange(desc(mean_lifeExp))
> >~~~
> >{: .language-r}
> >
> >
> >
> >~~~
> ># A tibble: 142 x 2
> >   country     mean_lifeExp
> >   <chr>              <dbl>
> > 1 Iceland             76.5
> > 2 Sweden              76.2
> > 3 Norway              75.8
> > 4 Netherlands         75.6
> > 5 Switzerland         75.6
> > 6 Canada              74.9
> > 7 Japan               74.8
> > 8 Australia           74.7
> > 9 Denmark             74.4
> >10 France              74.3
> ># ... with 132 more rows
…
lifeExp_categories
~~~
{: .language-r}



~~~
# A tibble: 119 x 4
# Groups:   continent, year [60]
   continent  year exp_cat               n
   <chr>     <int> <chr>             <int>
 1 Africa     1952 between 40 and 65    23
 2 Africa     1952 less than 40         29
 3 Africa     1957 between 40 and 65    29
 4 Africa     1957 less than 40         23
 5 Africa     1962 between 40 and 65    37
 6 Africa     1962 less than 40         15
 7 Africa     1967 between 40 and 65    42
 8 Africa     1967 less than 40         10
 9 Africa     1972 between 40 and 65    46
10 Africa     1972 less than 40          6
# ... with 109 more rows
…
~~~
gapminder_sr
~~~
{: .language-r}



~~~
# A tibble: 1,722 x 3
   country     year sex_ratio
   <chr>      <int>     <dbl>
 1 Burundi     1952      91.9
 2 Comoros     1952      98.8
 3 Djibouti    1952      98.6
 4 Eritrea     1952      98.2
 5 Ethiopia    1952      98.6
 6 Kenya       1952     102. 
 7 Madagascar  1952     106. 
 8 Malawi      1952      92.3
 9 Mauritius   1952      99.2
10 Mozambique  1952      95.6
# ... with 1,712 more rows
…
~~~
gapminder_left_join
~~~
{: .language-r}



~~~
# A tibble: 1,704 x 7
   country      year       pop continent lifeExp gdpPercap sex_ratio
   <chr>       <int>     <dbl> <chr>       <dbl>     <dbl>     <dbl>
 1 Afghanistan  1952  8425333. Asia         28.8      779.      112.
 2 Afghanistan  1957  9240934. Asia         30.3      821.      109.
 3 Afghanistan  1962 10267083. Asia         32.0      853.      107.
 4 Afghanistan  1967 11537966. Asia         34.0      836.      105.
 5 Afghanistan  1972 13079460. Asia         36.1      740.      104.
 6 Afghanistan  1977 14880372. Asia         38.4      786.      103.
 7 Afghanistan  1982 12881816. Asia         39.9      978.      104.
 8 Afghanistan  1987 13867957. Asia         40.8      852.      104.
 9 Afghanistan  1992 16317921. Asia         41.7      649.      105.
10 Afghanistan  1997 22227415. Asia         41.8      635.      107.
# ... with 1,694 more rows
…
