…
First, lets look at the structure of our original gapminder dataframe. Because it's a tibble, we can just print it, or use `str()`:


~~~
gapminder
~~~
{: .language-r}



~~~
# A tibble: 1,704 x 6
   country      year       pop continent lifeExp gdpPercap
   <chr>       <int>     <dbl> <chr>       <dbl>     <dbl>
 1 Afghanistan  1952  8425333. Asia         28.8      779.
 2 Afghanistan  1957  9240934. Asia         30.3      821.
 3 Afghanistan  1962 10267083. Asia         32.0      853.
 4 Afghanistan  1967 11537966. Asia         34.0      836.
 5 Afghanistan  1972 13079460. Asia         36.1      740.
 6 Afghanistan  1977 14880372. Asia         38.4      786.
 7 Afghanistan  1982 12881816. Asia         39.9      978.
 8 Afghanistan  1987 13867957. Asia         40.8      852.
 9 Afghanistan  1992 16317921. Asia         41.7      649.
10 Afghanistan  1997 22227415. Asia         41.8      635.
# ... with 1,694 more rows
…
~~~
gap_long <- gap_wide %>%
    gather(obstype_year, obs_values, starts_with('pop'),
           starts_with('lifeExp'), starts_with('gdpPercap'))
gap_long
~~~
{: .language-r}



~~~
# A tibble: 5,112 x 4
   continent country                  obstype_year obs_values
   <chr>     <chr>                    <chr>             <dbl>
 1 Africa    Algeria                  pop_1952       9279525.
 2 Africa    Angola                   pop_1952       4232095.
 3 Africa    Benin                    pop_1952       1738315.
 4 Africa    Botswana                 pop_1952        442308.
 5 Africa    Burkina Faso             pop_1952       4469979.
 6 Africa    Burundi                  pop_1952       2445618.
 7 Africa    Cameroon                 pop_1952       5009067.
 8 Africa    Central African Republic pop_1952       1291695.
 9 Africa    Chad                     pop_1952       2682462.
10 Africa    Comoros                  pop_1952        153936.
# ... with 5,102 more rows
…
~~~
gap_long <- gap_wide %>% 
  gather(obstype_year, obs_values, -continent, -country)
gap_long
~~~
{: .language-r}



~~~
# A tibble: 5,112 x 4
   continent country                  obstype_year   obs_values
   <chr>     <chr>                    <chr>               <dbl>
 1 Africa    Algeria                  gdpPercap_1952      2449.
 2 Africa    Angola                   gdpPercap_1952      3521.
 3 Africa    Benin                    gdpPercap_1952      1063.
 4 Africa    Botswana                 gdpPercap_1952       851.
 5 Africa    Burkina Faso             gdpPercap_1952       543.
 6 Africa    Burundi                  gdpPercap_1952       339.
 7 Africa    Cameroon                 gdpPercap_1952      1173.
 8 Africa    Central African Republic gdpPercap_1952      1071.
 9 Africa    Chad                     gdpPercap_1952      1179.
10 Africa    Comoros                  gdpPercap_1952      1103.
# ... with 5,102 more rows
…
~~~
gap_normal
~~~
{: .language-r}



~~~
# A tibble: 1,704 x 6
   country  year       pop continent lifeExp gdpPercap
   <chr>   <int>     <dbl> <chr>       <dbl>     <dbl>
 1 Algeria  1952  9279525. Africa       43.1     2449.
 2 Algeria  1957 10270856. Africa       45.7     3014.
 3 Algeria  1962 11000948. Africa       48.3     2551.
 4 Algeria  1967 12760499. Africa       51.4     3247.
 5 Algeria  1972 14760787. Africa       54.5     4183.
 6 Algeria  1977 17152804. Africa       58.0     4910.
 7 Algeria  1982 20033753. Africa       61.4     5745.
 8 Algeria  1987 23254956. Africa       65.8     5681.
 9 Algeria  1992 26298373. Africa       67.7     5023.
10 Algeria  1997 29072015. Africa       69.2     4797.
# ... with 1,694 more rows
~~~
{: .output}



~~~
gapminder
~~~
{: .language-r}



~~~
# A tibble: 1,704 x 6
   country      year       pop continent lifeExp gdpPercap
   <chr>       <int>     <dbl> <chr>       <dbl>     <dbl>
 1 Afghanistan  1952  8425333. Asia         28.8      779.
 2 Afghanistan  1957  9240934. Asia         30.3      821.
 3 Afghanistan  1962 10267083. Asia         32.0      853.
 4 Afghanistan  1967 11537966. Asia         34.0      836.
 5 Afghanistan  1972 13079460. Asia         36.1      740.
 6 Afghanistan  1977 14880372. Asia         38.4      786.
 7 Afghanistan  1982 12881816. Asia         39.9      978.
 8 Afghanistan  1987 13867957. Asia         40.8      852.
 9 Afghanistan  1992 16317921. Asia         41.7      649.
10 Afghanistan  1997 22227415. Asia         41.8      635.
# ... with 1,694 more rows
…
~~~
gap_temp <- gap_long %>% 
  unite(var_ID, continent, country, sep="_")
gap_temp
~~~
{: .language-r}



~~~
# A tibble: 5,112 x 4
   var_ID                          obs_type   year obs_values
   <chr>                           <chr>     <int>      <dbl>
 1 Africa_Algeria                  gdpPercap  1952      2449.
 2 Africa_Angola                   gdpPercap  1952      3521.
 3 Africa_Benin                    gdpPercap  1952      1063.
 4 Africa_Botswana                 gdpPercap  1952       851.
 5 Africa_Burkina Faso             gdpPercap  1952       543.
 6 Africa_Burundi                  gdpPercap  1952       339.
 7 Africa_Cameroon                 gdpPercap  1952      1173.
 8 Africa_Central African Republic gdpPercap  1952      1071.
 9 Africa_Chad                     gdpPercap  1952      1179.
10 Africa_Comoros                  gdpPercap  1952      1103.
# ... with 5,102 more rows
…
~~~
gap_temp <- gap_long %>%
    unite(ID_var, continent, country, sep="_") %>%
    unite(var_names, obs_type, year, sep="_")
gap_temp
~~~
{: .language-r}



~~~
# A tibble: 5,112 x 3
   ID_var                          var_names      obs_values
   <chr>                           <chr>               <dbl>
 1 Africa_Algeria                  gdpPercap_1952      2449.
 2 Africa_Angola                   gdpPercap_1952      3521.
 3 Africa_Benin                    gdpPercap_1952      1063.
 4 Africa_Botswana                 gdpPercap_1952       851.
 5 Africa_Burkina Faso             gdpPercap_1952       543.
 6 Africa_Burundi                  gdpPercap_1952       339.
 7 Africa_Cameroon                 gdpPercap_1952      1173.
 8 Africa_Central African Republic gdpPercap_1952      1071.
 9 Africa_Chad                     gdpPercap_1952      1179.
10 Africa_Comoros                  gdpPercap_1952      1103.
# ... with 5,102 more rows
…
~~~
gap_wide_new <- gap_long %>%
    unite(ID_var, continent, country, sep="_") %>%
    unite(var_names, obs_type, year, sep="_") %>%
    spread(var_names, obs_values)
gap_wide_new
~~~
{: .language-r}



~~~
# A tibble: 142 x 37
   ID_var      gdpPercap_1952 gdpPercap_1957 gdpPercap_1962 gdpPercap_1967
   <chr>                <dbl>          <dbl>          <dbl>          <dbl>
 1 Africa_Alg…          2449.          3014.          2551.          3247.
 2 Africa_Ang…          3521.          3828.          4269.          5523.
 3 Africa_Ben…          1063.           960.           949.          1036.
 4 Africa_Bot…           851.           918.           984.          1215.
 5 Africa_Bur…           543.           617.           723.           795.
 6 Africa_Bur…           339.           380.           355.           413.
 7 Africa_Cam…          1173.          1313.          1400.          1508.
 8 Africa_Cen…          1071.          1191.          1193.          1136.
 9 Africa_Chad          1179.          1308.          1390.          1197.
10 Africa_Com…          1103.          1211.          1407.          1876.
# ... with 132 more rows, and 32 more variables: gdpPercap_1972 <dbl>,
#   gdpPercap_1977 <dbl>, gdpPercap_1982 <dbl>, gdpPercap_1987 <dbl>,
#   gdpPercap_1992 <dbl>, gdpPercap_1997 <dbl>, gdpPercap_2002 <dbl>,
#   gdpPercap_2007 <dbl>, lifeExp_1952 <dbl>, lifeExp_1957 <dbl>,
#   lifeExp_1962 <dbl>, lifeExp_1967 <dbl>, lifeExp_1972 <dbl>,
#   lifeExp_1977 <dbl>, lifeExp_1982 <dbl>, lifeExp_1987 <dbl>,
#   lifeExp_1992 <dbl>, lifeExp_1997 <dbl>, lifeExp_2002 <dbl>,
#   lifeExp_2007 <dbl>, pop_1952 <dbl>, pop_1957 <dbl>, pop_1962 <dbl>,
#   pop_1967 <dbl>, pop_1972 <dbl>, pop_1977 <dbl>, pop_1982 <dbl>,
…
~~~
# A tibble: 142 x 38
   continent country          gdpPercap_1952 gdpPercap_1957 gdpPercap_1962
   <chr>     <chr>                     <dbl>          <dbl>          <dbl>
 1 Africa    Algeria                   2449.          3014.          2551.
 2 Africa    Angola                    3521.          3828.          4269.
 3 Africa    Benin                     1063.           960.           949.
 4 Africa    Botswana                   851.           918.           984.
 5 Africa    Burkina Faso               543.           617.           723.
 6 Africa    Burundi                    339.           380.           355.
 7 Africa    Cameroon                  1173.          1313.          1400.
 8 Africa    Central African…          1071.          1191.          1193.
 9 Africa    Chad                      1179.          1308.          1390.
10 Africa    Comoros                   1103.          1211.          1407.
# ... with 132 more rows, and 33 more variables: gdpPercap_1967 <dbl>,
#   gdpPercap_1972 <dbl>, gdpPercap_1977 <dbl>, gdpPercap_1982 <dbl>,
#   gdpPercap_1987 <dbl>, gdpPercap_1992 <dbl>, gdpPercap_1997 <dbl>,
#   gdpPercap_2002 <dbl>, gdpPercap_2007 <dbl>, lifeExp_1952 <dbl>,
#   lifeExp_1957 <dbl>, lifeExp_1962 <dbl>, lifeExp_1967 <dbl>,
#   lifeExp_1972 <dbl>, lifeExp_1977 <dbl>, lifeExp_1982 <dbl>,
#   lifeExp_1987 <dbl>, lifeExp_1992 <dbl>, lifeExp_1997 <dbl>,
#   lifeExp_2002 <dbl>, lifeExp_2007 <dbl>, pop_1952 <dbl>,
#   pop_1957 <dbl>, pop_1962 <dbl>, pop_1967 <dbl>, pop_1972 <dbl>,
…
